{
    "artists": {
      "href": "https://api.spotify.com/v1/search?query=artist%3AThe+Beatles&type=artist&locale=ca-ES%2Cca%3Bq%3D0.9%2Cen%3Bq%3D0.8%2Ces%3Bq%3D0.7&offset=0&limit=5",
      "items": [
        {
          "external_urls": {
            "spotify": "https://open.spotify.com/artist/3WrFJ7ztbogyGnTHbHJFl2"
          },
          "followers": {
            "href": null,
            "total": 28265225
          },
          "genres": [
            "british invasion",
            "classic rock",
            "merseybeat",
            "psychedelic rock",
            "rock"
          ],
          "href": "https://api.spotify.com/v1/artists/3WrFJ7ztbogyGnTHbHJFl2",
          "id": "3WrFJ7ztbogyGnTHbHJFl2",
          "images": [
            {
              "height": 640,
              "url": "https://i.scdn.co/image/ab6761610000e5ebe9348cc01ff5d55971b22433",
              "width": 640
            },
            {
              "height": 320,
              "url": "https://i.scdn.co/image/ab67616100005174e9348cc01ff5d55971b22433",
              "width": 320
            },
            {
              "height": 160,
              "url": "https://i.scdn.co/image/ab6761610000f178e9348cc01ff5d55971b22433",
              "width": 160
            }
          ],
          "name": "The Beatles",
          "popularity": 85,
          "type": "artist",
          "uri": "spotify:artist:3WrFJ7ztbogyGnTHbHJFl2"
        },
        {
          "external_urls": {
            "spotify": "https://open.spotify.com/artist/0rhGLV687CCwGfeJYXd176"
          },
          "followers": {
            "href": null,
            "total": 5162
          },
          "genres": [],
          "href": "https://api.spotify.com/v1/artists/0rhGLV687CCwGfeJYXd176",
          "id": "0rhGLV687CCwGfeJYXd176",
          "images": [
            {
              "height": 640,
              "url": "https://i.scdn.co/image/ab67616d0000b273a53d58fac4e46d5264adc122",
              "width": 640
            },
            {
              "height": 300,
              "url": "https://i.scdn.co/image/ab67616d00001e02a53d58fac4e46d5264adc122",
              "width": 300
            },
            {
              "height": 64,
              "url": "https://i.scdn.co/image/ab67616d00004851a53d58fac4e46d5264adc122",
              "width": 64
            }
          ],
          "name": "The Beatles Tribute Band",
          "popularity": 24,
          "type": "artist",
          "uri": "spotify:artist:0rhGLV687CCwGfeJYXd176"
        },
        {
          "external_urls": {
            "spotify": "https://open.spotify.com/artist/3cBV24PM5nZsXqopSHvdtS"
          },
          "followers": {
            "href": null,
            "total": 13391
          },
          "genres": [
            "tribute"
          ],
          "href": "https://api.spotify.com/v1/artists/3cBV24PM5nZsXqopSHvdtS",
          "id": "3cBV24PM5nZsXqopSHvdtS",
          "name": "The Beatles Recovered Band",
          "popularity": 27,
          "type": "artist",
          "uri": "spotify:artist:3cBV24PM5nZsXqopSHvdtS"
        },
        {
          "external_urls": {
            "spotify": "https://open.spotify.com/artist/36QpVbYALWlz5NtMI3LhiV"
          },
          "followers": {
            "href": null,
            "total": 9935
          },
          "genres": [
            "tribute"
          ],
          "href": "https://api.spotify.com/v1/artists/36QpVbYALWlz5NtMI3LhiV",
          "id": "36QpVbYALWlz5NtMI3LhiV",
          "images": [
            {
              "height": 640,
              "url": "https://i.scdn.co/image/ab67616d0000b273f903d75acdce7727b3c4aa2c",
              "width": 640
            },
            {
              "height": 300,
              "url": "https://i.scdn.co/image/ab67616d00001e02f903d75acdce7727b3c4aa2c",
              "width": 300
            },
            {
              "height": 64,
              "url": "https://i.scdn.co/image/ab67616d00004851f903d75acdce7727b3c4aa2c",
              "width": 64
            }
          ],
          "name": "The Beatles Greatest Hits Performed By The Frank Berman Band",
          "popularity": 23,
          "type": "artist",
          "uri": "spotify:artist:36QpVbYALWlz5NtMI3LhiV"
        },
        {
          "external_urls": {
            "spotify": "https://open.spotify.com/artist/0zRgwHorAZPeYVdTW9F5OX"
          },
          "followers": {
            "href": null,
            "total": 10244
          },
          "genres": [
            "tribute"
          ],
          "href": "https://api.spotify.com/v1/artists/0zRgwHorAZPeYVdTW9F5OX",
          "id": "0zRgwHorAZPeYVdTW9F5OX",
          "name": "The Beatles Revival Band",
          "popularity": 33,
          "type": "artist",
          "uri": "spotify:artist:0zRgwHorAZPeYVdTW9F5OX"
        }
      ],
      "limit": 5,
      "next": "https://api.spotify.com/v1/search?query=artist%3AThe+Beatles&type=artist&locale=ca-ES%2Cca%3Bq%3D0.9%2Cen%3Bq%3D0.8%2Ces%3Bq%3D0.7&offset=5&limit=5",
      "offset": 0,
      "previous": null,
      "total": 59
    }
  }
